{
    "name": "Learn English",
    "imageUrl": "https://www.lipstiq.com/wp-content/uploads/2017/11/english.png",
  "quizzes": [
    {
      "name": "Android",
      "questions": [
        {
          "question": "What is an Intent?",
          "answers": [
              "An Intent",
              "An Activity",
              "A View",
              "Nothing"
            ],
          "correct": 0
        },
        {
          "question": "What is an Activity?",
          "answers": [
            "An Intent",
            "An Activity",
            "A View",
            "Nothing"
          ],
          "correct": 1
        },
        {
          "question": "What is a View?",
          "answers": [
            "An Intent",
            "An Activity",
            "A View",
            "Nothing"
          ],
          "correct": 2
        },
        {
          "question": "What is a Jkortedf?",
          "answers": [
            "An Intent",
            "An Activity",
            "A View",
            "Nothing"
          ],
          "correct": 3
        }
      ]
    },
    {
      "name": "JAVA",
      "questions": [
        {
          "question": "What is a Class?",
          "answers": [
            "A class",
            "A method",
            "A library",
            "Nothing"
          ],
          "correct": 0
        },
        {
          "question": "What is a Method?",
          "answers": [
            "A class",
            "A method",
            "A library",
            "Nothing"
          ],
          "correct": 1
        },
        {
          "question": "What is a library?",
          "answers": [
            "A class",
            "A method",
            "A library",
            "Nothing"
          ],
          "correct": 2
        }
      ]
    }
  ]
}
